{
  "roots": [
    "<rootDir>/src/"
  ],
  "collectCoverageFrom": [
    "src/**/*.{js}"
  ],
  "testEnvironment": "jsdom",
  "transform": {
    "^.+\\.(js|jsx)$": "<rootDir>/node_modules/babel-jest"
  }
}
